brilws==3.1.1
cycler==0.10.0
funcsigs==1.0.2
functools32==3.2.3.post2
h5py==2.6.0
hep-ml==0.4.0
Keras==2.0.0
matplotlib==2.0.0
mock==2.0.0
numexpr==2.6.2
numpy==1.12.0
pandas==0.19.2
pbr==2.0.0
protobuf==3.2.0
pyparsing==2.2.0
python-dateutil==2.6.0
pytz==2016.10
PyYAML==3.12
root-numpy==4.4.0.dev0
scikit-learn==0.18.1
scipy==0.19.0
six==1.10.0
subprocess32==3.2.7
tables==3.3.0
tensorflow==1.0.1
Theano==0.9.0
